…
getDirListing needs URL as an argument, we can get our URLs of interest from document summaries that we downloaded in Part 1. URLs to the folders where supplementary files are kept in GEO database are stored in document summaries under variable FTPLink.

However, now we narrow down our query to include human and mouse datasets only: expression profiling by high throughput sequencing[DataSet Type] AND (Homo sapiens[Organism] OR Mus musculus[Organism]). This query retrieved 9042 GEO Series.

library(tidyverse)
select(ds, Accession, FTPLink)
## # A tibble: 9,042 x 2
##    Accession                                                  FTPLink
##        <chr>                                                    <chr>
##  1  GSE90068 ftp://ftp.ncbi.nlm.nih.gov/geo/series/GSE90nnn/GSE90068/
##  2  GSE89888 ftp://ftp.ncbi.nlm.nih.gov/geo/series/GSE89nnn/GSE89888/
##  3  GSE99596 ftp://ftp.ncbi.nlm.nih.gov/geo/series/GSE99nnn/GSE99596/
##  4  GSE73860 ftp://ftp.ncbi.nlm.nih.gov/geo/series/GSE73nnn/GSE73860/
##  5  GSE99552 ftp://ftp.ncbi.nlm.nih.gov/geo/series/GSE99nnn/GSE99552/
##  6  GSE74456 ftp://ftp.ncbi.nlm.nih.gov/geo/series/GSE74nnn/GSE74456/
##  7  GSE95558 ftp://ftp.ncbi.nlm.nih.gov/geo/series/GSE95nnn/GSE95558/
##  8  GSE95592 ftp://ftp.ncbi.nlm.nih.gov/geo/series/GSE95nnn/GSE95592/
##  9  GSE99093 ftp://ftp.ncbi.nlm.nih.gov/geo/series/GSE99nnn/GSE99093/
## 10  GSE94144 ftp://ftp.ncbi.nlm.nih.gov/geo/series/GSE94nnn/GSE94144/
## # ... with 9,032 more rows

We further narrow down our query by using only submissions with publication dates (PDAT) in period between Christmas 2015 and end of March 2017. This period in not completely arbitrary, I just did run the script first time in Christmas 2016 and was looking for datasets published within last year. This filter leaves us with 4771 GEO Series. Scraping all these FTPLinks one-by-one for file names can take considerable time: 5-7 hours.

library(RCurl) # getURL()
suppfilenames <- ds %>% 
  filter(PDAT>="2015/12/24", PDAT<="2017/03/31") %>%
  mutate(SuppFileNames = map(FTPLink, ~try(getDirListing(file.path(.x, "suppl/")))))

In the end we have a data_frame with supplementary file names and of course with some fails:

select(suppfilenames, Accession, SuppFileNames)
## # A tibble: 4,682 x 2
##    Accession   SuppFileNames
##        <chr>          <list>
##  1  GSE83993       <chr [3]>
##  2  GSE96566 <S3: try-error>
##  3  GSE96561       <chr [2]>
##  4  GSE96560       <chr [1]>
##  5  GSE97121       <chr [2]>
##  6  GSE97120       <chr [2]>
##  7  GSE97118       <chr [1]>
##  8  GSE92949       <chr [2]>
##  9  GSE92966       <chr [2]>
## 10  GSE92882       <chr [2]>
## # ... with 4,672 more rows

Let’s have a closer look at failed downloads. As expected, recent submissions lack supplementary files, but also many submissions that are well over year old (Figure 2).

notavailable <- select(suppfilenames, Accession, SuppFileNames, PDAT) %>% 
  filter(map_lgl(SuppFileNames, ~inherits(.x, "try-error")))
notavailable
## # A tibble: 187 x 3
##    Accession   SuppFileNames       PDAT
##        <chr>          <list>      <chr>
##  1  GSE96566 <S3: try-error> 2017/03/30
##  2  GSE97061 <S3: try-error> 2017/03/28
##  3  GSE81444 <S3: try-error> 2017/03/27
##  4  GSE92543 <S3: try-error> 2017/03/24
##  5  GSE80345 <S3: try-error> 2017/03/24
##  6  GSE90112 <S3: try-error> 2017/03/14
##  7  GSE83392 <S3: try-error> 2017/03/13
##  8  GSE89893 <S3: try-error> 2017/03/13
##  9  GSE93802 <S3: try-error> 2017/03/10
## 10  GSE94604 <S3: try-error> 2017/03/01
## # ... with 177 more rows
…
Figure 2: Recent submissions lack supplementary files or they are under embargo. Distribution of GEO series with missing supplementary files from period 2015-12-24 to 2017-3-31.

Here we specify files with name extensions that we are NOT going to download and analyse. We filter these potentially uninteresting supplemental files out from our sample. Here they are uninteresting for us because we know that they don’t contain P-values or raw counts.

library(stringr)
out <- c("tar","gtf","bed","bigbed","bedgraph","bw","wig","hic","gct(x)?","tdf",
         "gff","pdf","png","zip","sif","narrowpeak","gff3","fa")
suppfiles_of_interest <- suppfilenames %>% 
  unnest(SuppFileNames) %>%
  filter(!str_detect(tolower(SuppFileNames), "filelist|error|readme|annotation|raw.tar$|[:punct:]hic|hdf5$"),
         !str_detect(tolower(SuppFileNames), paste0(out, "(\\.gz)?$", collapse = "|"))) %>% 
  select(Accession, SuppFileNames, FTPLink, PDAT) %>% 
  mutate(filext = str_extract(tolower(SuppFileNames), "\\.[:alpha:]+([:punct:][bgz2]+)?$")) 
select(suppfiles_of_interest, Accession, SuppFileNames)
## # A tibble: 3,657 x 2
##    Accession                                            SuppFileNames
##        <chr>                                                    <chr>
##  1  GSE83993                GSE83993_MethylC-seq_DMRs_methylpy.txt.gz
##  2  GSE96561                        GSE96561_MI_TAC_raw_counts.txt.gz
##  3  GSE96561                          GSE96561_Sham_raw_counts.txt.gz
##  4  GSE96560                         GSE96560_iCell_raw_counts.txt.gz
##  5  GSE97118                                GSE97118_GeneCount.tsv.gz
##  6  GSE92882                          GSE92882_DiffBindResults.txt.gz
##  7  GSE92882                             GSE92882_EdgeRResults.txt.gz
##  8  GSE76772                GSE76772_pymt-RNAseq-merged-counts.txt.gz
##  9  GSE83222                             GSE83222_matrix_table.xls.gz
## 10  GSE79739 GSE79739_WT_vs_HDAC3KO_exercise_gene_exp_cuffdiff.txt.gz
## # ... with 3,647 more rows
…
