…
  d %>% 
    xmlSApply(. %>% getChildrenStrings) %>% 
    t %>% 
    as_data_frame %>% 
    set_colnames(items)
}

ds <- sumcont %>% lapply(extract_docsums) %>% bind_rows()

ds
## # A tibble: 13,136 × 28
##           Id Accession   GDS
##        <chr>     <chr> <chr>
## 1  200095858  GSE95858      
## 2  200092257  GSE92257      
## 3  200090444  GSE90444      
## 4  200069047  GSE69047      
## 5  200095688  GSE95688      
## 6  200089238  GSE89238      
## 7  200090914  GSE90914      
## 8  200088840  GSE88840      
## 9  200076878  GSE76878      
## 10 200085112  GSE85112      
## # ... with 13,126 more rows, and 25 more variables: title <chr>,
## #   summary <chr>, GPL <chr>, GSE <chr>, taxon <chr>, entryType <chr>,
## #   gdsType <chr>, ptechType <chr>, valType <chr>, SSInfo <chr>,
## #   subsetInfo <chr>, PDAT <chr>, suppFile <chr>, Samples <chr>,
## #   Relations <chr>, ExtRelations <chr>, n_samples <chr>,
## #   SeriesTitle <chr>, PlatformTitle <chr>, PlatformTaxa <chr>,
## #   SamplesTaxa <chr>, PubMedIds <chr>, Projects <chr>, FTPLink <chr>,
## #   GEO2R <chr>
…
